# olink_one_non_parametric - works - KW - ref results - legacy dunn.test

    Code
      kruskal_posthoc_results
    Output
      # A tibble: 190 x 9
         Assay OlinkID  UniProt Panel  term  contrast estimate Adjusted_pval Threshold
         <chr> <fct>    <chr>   <chr>  <chr> <chr>       <dbl>         <dbl> <chr>    
       1 VEGFA OID00472 P15692  Olink~ Site  Site_A ~    1.59          0.282 Non-sign~
       2 VEGFA OID00472 P15692  Olink~ Site  Site_A ~    0.850         0.564 Non-sign~
       3 VEGFA OID00472 P15692  Olink~ Site  Site_A ~    2.53          0.113 Non-sign~
       4 VEGFA OID00472 P15692  Olink~ Site  Site_A ~    2.31          0.104 Non-sign~
       5 VEGFA OID00472 P15692  Olink~ Site  Site_B ~   -0.801         0.529 Non-sign~
       6 VEGFA OID00472 P15692  Olink~ Site  Site_B ~    1.07          0.478 Non-sign~
       7 VEGFA OID00472 P15692  Olink~ Site  Site_B ~    0.762         0.496 Non-sign~
       8 VEGFA OID00472 P15692  Olink~ Site  Site_C ~    1.85          0.216 Non-sign~
       9 VEGFA OID00472 P15692  Olink~ Site  Site_C ~    1.58          0.228 Non-sign~
      10 VEGFA OID00472 P15692  Olink~ Site  Site_D ~   -0.344         0.731 Non-sign~
      # i 180 more rows
